<svg xmlns="http://www.w3.org/2000/svg" xmlns:xlink="http://www.w3.org/1999/xlink" width="34" height="23" viewBox="0 0 34 23">
    <defs>
        <path id="a" d="M9.253 0h1.526L20 23h-1.367l-2.862-7.28H4.293L1.399 23H0L9.253 0zM4 15h11L9.55 2h-.1L4 15zM27.499 5c2.253 0 3.958.66 5.085 1.982C33.517 8.072 34 9.59 34 11.506v11.032h-1.19v-3.666c-.709 1.056-1.61 1.948-2.769 2.74-1.448.926-2.993 1.388-4.634 1.388-1.577 0-2.864-.43-3.83-1.222C20.515 20.952 20 19.829 20 18.409c0-1.981.805-3.402 2.414-4.326 1.352-.86 3.315-1.255 5.89-1.255l4.473-.034V11.64c0-3.667-1.77-5.483-5.31-5.483-1.48 0-2.704.297-3.67.958-1.061.693-1.737 1.717-1.995 3.038l-1.19-.132c.321-1.651 1.094-2.906 2.381-3.765C24.183 5.396 25.697 5 27.5 5zM33 14l-4.24.033c-4.517.033-6.76 1.554-6.76 4.529 0 1.058.369 1.884 1.137 2.512.768.595 1.782.926 3.042.926 1.72 0 3.287-.661 4.732-1.983C32.293 18.76 33 17.47 33 16.149V14z"/>
    </defs>
    <g fill="none" fill-rule="evenodd">
        <use fill="#5D5D5D" xlink:href="#a"/>
        <use fill="#4A4A4A" xlink:href="#a"/>
    </g>
</svg>
