<svg xmlns="http://www.w3.org/2000/svg" width="17" height="117" viewBox="0 0 17 117">
    <text fill="#FFF" fill-rule="evenodd" font-family="PingFangTC-Semibold, PingFang TC" font-size="18" font-weight="500" transform="translate(-18 -108)">
        <tspan x="17.5" y="123">文</tspan> <tspan x="17.5" y="148">橫</tspan> <tspan x="17.5" y="173">功</tspan> <tspan x="17.5" y="198">能</tspan> <tspan x="17.5" y="223">橫</tspan>
    </text>
</svg>
