<svg xmlns="http://www.w3.org/2000/svg" width="20" height="22" viewBox="0 0 20 22">
    <g fill="none" fill-rule="evenodd">
        <path stroke="#4A4A4A" d="M14.942 16.03L19.5 21.5l-4.558-5.47a8.5 8.5 0 1 1 0 0z"/>
        <path d="M-1-5h27v27H-1z" opacity=".524"/>
    </g>
</svg>
